[plane1]
coordinates = "cartesian"
#mask_file = "../reconstruction/MaskCreator/plane1/mask_plane1.txt"
material_budget = 0.00075
number_of_pixels = 1152, 576
orientation = 0deg,0deg,0deg
orientation_mode = "xyz"
pixel_pitch = 18.4um,18.4um
position = 0mm,0um,0um
spatial_resolution = 4.5um,4.5um
time_resolution = 230us
type = "mimosa26"

[plane2]
coordinates = "cartesian"
#mask_file = "../reconstruction/MaskCreator/plane2/mask_plane2.txt"
material_budget = 0.00075
number_of_pixels = 1152, 576
orientation = 0deg,0deg,0deg
orientation_mode = "xyz"
pixel_pitch = 18.4um,18.4um
position = 0mm,0um,155mm
spatial_resolution = 4.5um,4.5um
time_resolution = 230us
type = "mimosa26"

[plane3]
coordinates = "cartesian"
#mask_file = "../reconstruction/MaskCreator/plane3/mask_plane3.txt"
material_budget = 0.00075
number_of_pixels = 1152, 576
orientation = 0deg,0deg,0deg
orientation_mode = "xyz"
pixel_pitch = 18.4um,18.4um
position = 0um,0mm,304mm
spatial_resolution = 4.5um,4.5um
time_resolution = 230us
type = "mimosa26"

[plane130]
coordinates = "cartesian"
#mask_file = "../reconstruction/MaskCreator/plane130/mask_plane130.txt"
material_budget = 0.01
number_of_pixels = 400, 384
orientation = 0deg,180deg,0deg
orientation_mode = "xyz"
pixel_pitch = 50um,50um
position = 0mm,0um,442mm
role = "dut"
spatial_resolution = 14.434um,14.434um
time_resolution = 200ns
type = "rd53b"

[plane131]
coordinates = "cartesian"
#mask_file = "../reconstruction/MaskCreator/plane131/mask_plane131.txt"
material_budget = 0.01
number_of_pixels = 200, 768
orientation = 0deg,180deg,0deg
orientation_mode = "xyz"
pixel_pitch = 100um,25um
position = 0mm,0um,481mm
role = "dut"
spatial_resolution = 29.8um,7.9um
time_resolution = 200ns
type = "rd53b"

[plane132]
coordinates = "cartesian"
#mask_file = "../reconstruction/MaskCreator/plane132/mask_plane132.txt"
material_budget = 0.01
number_of_pixels = 400, 384
orientation = 0deg,180deg,0deg
orientation_mode = "xyz"
pixel_pitch = 50um,50um
position = 0mm,0um,537mm
role = "dut"
spatial_resolution = 14.434um,14.434um
time_resolution = 200ns
type = "rd53b"

[plane4]
coordinates = "cartesian"
#mask_file = "../reconstruction/MaskCreator/plane4/mask_plane4.txt"
material_budget = 0.00075
number_of_pixels = 1152, 576
orientation = 0deg,0deg,0deg
orientation_mode = "xyz"
pixel_pitch = 18.4um,18.4um
position = 0um,0um,780mm
role = "reference"
spatial_resolution = 4.5um,4.5um
time_resolution = 230us
type = "mimosa26"

[plane5]
coordinates = "cartesian"
#mask_file = "../reconstruction/MaskCreator/plane5/mask_plane5.txt"
material_budget = 0.00075
number_of_pixels = 1152, 576
orientation = 0deg,0deg,0deg
orientation_mode = "xyz"
pixel_pitch = 18.4um,18.4um
position = 0um,0um,931mm
spatial_resolution = 4.5um,4.5um
time_resolution = 230us
type = "mimosa26"

[plane6]
coordinates = "cartesian"
#mask_file = "../reconstruction/MaskCreator/plane6/mask_plane6.txt"
material_budget = 0.00075
number_of_pixels = 1152, 576
orientation = 0deg,0deg,0deg
orientation_mode = "xyz"
pixel_pitch = 18.4um,18.4um
position = 0um,0um,1035mm
spatial_resolution = 4.5um,4.5um
time_resolution = 230us
type = "mimosa26"

