p	0	222
p	0	387
p	0	552
p	1	69
p	1	144
p	1	306
p	1	476
p	2	72
p	2	116
p	4	465
p	4	549
p	5	54
p	6	135
p	7	570
p	9	43
p	9	194
p	10	128
p	14	356
p	14	471
p	14	518
p	15	311
p	18	4
p	18	237
p	20	46
p	20	509
p	20	520
p	21	108
p	24	135
p	24	401
p	24	432
p	25	93
p	25	413
p	25	478
p	28	351
p	31	479
p	32	78
p	33	212
p	33	367
p	33	418
p	34	157
p	37	518
p	39	233
p	39	479
p	42	278
p	42	496
p	43	424
p	45	126
p	45	203
p	46	330
p	46	494
p	47	36
p	47	360
p	47	459
p	47	464
p	48	85
p	48	353
p	49	390
p	51	447
p	52	346
p	52	463
p	53	376
p	54	152
p	56	484
p	57	356
p	57	520
p	59	274
p	60	190
p	60	518
p	61	541
p	62	11
p	63	457
p	64	21
p	65	22
p	67	432
p	69	550
p	75	283
p	76	283
p	76	374
p	78	271
p	79	550
p	80	299
p	80	573
p	81	556
p	83	79
p	84	44
p	84	328
p	84	430
p	84	492
p	85	34
p	85	274
p	85	334
p	86	488
p	87	1
p	89	100
p	90	58
p	91	48
p	91	122
p	93	427
p	95	466
p	98	73
p	99	278
p	103	22
p	103	201
p	104	521
p	105	78
p	105	459
p	105	540
p	106	281
p	107	75
p	107	571
p	108	178
p	108	286
p	109	101
p	110	44
p	110	219
p	110	261
p	111	328
p	112	96
p	113	133
p	113	515
p	116	155
p	116	553
p	118	216
p	118	309
p	119	545
p	121	24
p	121	349
p	122	534
p	124	123
p	124	130
p	124	215
p	125	6
p	125	22
p	125	446
p	125	450
p	126	348
p	127	293
p	135	39
p	137	144
p	138	416
p	140	198
p	142	301
p	142	329
p	144	370
p	146	14
p	146	484
p	148	21
p	149	101
p	150	225
p	151	105
p	151	116
p	151	323
p	151	541
p	153	564
p	154	497
p	156	346
p	157	3
p	157	42
p	157	301
p	158	316
p	159	159
p	159	454
p	160	198
p	160	418
p	161	4
p	161	35
p	161	538
p	162	456
p	164	50
p	166	463
p	167	65
p	169	535
p	173	189
p	174	69
p	174	122
p	174	284
p	175	53
p	176	164
p	177	180
p	180	530
p	181	245
p	182	207
p	182	485
p	184	112
p	185	438
p	186	124
p	186	549
p	187	197
p	188	44
p	188	396
p	189	138
p	189	262
p	189	449
p	190	10
p	190	526
p	192	10
p	192	177
p	194	333
p	195	44
p	195	168
p	195	498
p	196	424
p	198	403
p	198	438
p	200	58
p	200	286
p	201	241
p	202	101
p	202	532
p	204	270
p	205	27
p	207	260
p	207	529
p	208	280
p	208	344
p	209	307
p	211	158
p	211	380
p	212	379
p	212	449
p	213	119
p	213	320
p	213	394
p	214	228
p	217	21
p	217	107
p	218	234
p	218	509
p	218	552
p	219	349
p	219	401
p	220	214
p	221	499
p	222	51
p	224	525
p	225	69
p	225	245
p	226	217
p	226	303
p	227	247
p	227	390
p	228	74
p	228	489
p	230	228
p	232	71
p	233	383
p	233	467
p	234	550
p	235	363
p	236	160
p	237	16
p	237	399
p	238	383
p	238	499
p	238	565
p	242	5
p	244	374
p	244	381
p	245	315
p	245	389
p	246	84
p	248	164
p	248	457
p	250	442
p	251	188
p	251	285
p	252	189
p	254	568
p	255	310
p	255	571
p	256	378
p	258	267
p	259	487
p	261	284
p	262	356
p	262	366
p	264	32
p	265	163
p	266	378
p	269	142
p	270	9
p	270	67
p	270	269
p	272	570
p	273	187
p	273	340
p	274	41
p	274	385
p	276	170
p	277	80
p	277	422
p	280	114
p	281	140
p	282	384
p	282	534
p	282	541
p	284	75
p	284	439
p	284	457
p	285	53
p	287	88
p	289	385
p	291	209
p	292	412
p	293	6
p	293	523
p	294	49
p	294	204
p	294	225
p	294	312
p	294	373
p	295	321
p	295	335
p	296	455
p	297	149
p	298	62
p	301	226
p	301	532
p	304	252
p	305	79
p	305	446
p	306	474
p	306	557
p	307	432
p	309	484
p	310	41
p	311	6
p	311	502
p	311	510
p	312	260
p	312	524
p	313	524
p	314	227
p	315	143
p	316	546
p	318	137
p	319	48
p	320	148
p	320	157
p	320	510
p	321	490
p	322	276
p	323	212
p	324	427
p	327	136
p	327	247
p	327	525
p	328	197
p	328	211
p	329	63
p	329	111
p	329	530
p	330	309
p	330	519
p	332	372
p	332	535
p	334	389
p	336	88
p	338	307
p	338	564
p	339	282
p	339	403
p	340	223
p	343	8
p	343	230
p	345	277
p	347	565
p	348	385
p	349	102
p	349	337
p	352	535
p	352	571
p	353	0
p	353	510
p	354	330
p	354	389
p	355	410
p	357	569
p	359	389
p	365	101
p	366	521
p	369	512
p	371	49
p	372	302
p	372	384
p	372	491
p	373	490
p	374	214
p	374	370
p	375	187
p	376	106
p	376	204
p	377	270
p	377	528
p	378	48
p	378	551
p	379	77
p	379	443
p	380	332
p	381	175
p	383	202
p	383	247
p	384	91
p	384	500
p	384	548
p	390	274
p	391	443
p	394	464
p	394	470
p	395	262
p	397	91
p	398	529
p	399	38
p	400	313
p	402	340
p	403	266
p	405	33
p	405	396
p	405	484
p	406	8
p	410	251
p	411	120
p	411	288
p	413	91
p	413	311
p	413	393
p	415	411
p	416	416
p	416	460
p	416	516
p	419	68
p	422	247
p	423	233
p	424	174
p	425	49
p	425	153
p	425	567
p	428	189
p	429	394
p	429	532
p	431	514
p	432	447
p	432	468
p	433	50
p	433	319
p	435	354
p	437	24
p	437	289
p	438	424
p	439	214
p	440	34
p	440	276
p	441	258
p	442	294
p	443	44
p	443	115
p	443	433
p	445	545
p	447	290
p	448	265
p	451	205
p	452	195
p	453	329
p	456	181
p	456	366
p	456	476
p	458	481
p	460	210
p	460	527
p	461	140
p	463	565
p	464	134
p	466	426
p	467	43
p	468	378
p	468	564
p	470	254
p	470	279
p	471	356
p	473	323
p	474	14
p	475	570
p	476	7
p	476	14
p	479	427
p	479	555
p	482	216
p	482	365
p	482	457
p	483	161
p	483	222
p	484	85
p	485	565
p	487	141
p	489	87
p	489	555
p	490	117
p	490	191
p	490	436
p	490	561
p	491	489
p	493	208
p	496	502
p	497	57
p	498	231
p	499	499
p	499	526
p	500	226
p	501	291
p	501	496
p	503	182
p	503	530
p	504	307
p	505	224
p	505	258
p	506	511
p	507	108
p	507	296
p	507	355
p	508	272
p	509	365
p	509	368
p	510	159
p	511	277
p	512	296
p	512	502
p	514	246
p	515	342
p	515	415
p	516	84
p	518	12
p	518	273
p	519	70
p	520	509
p	521	84
p	521	174
p	521	181
p	521	294
p	521	353
p	521	559
p	523	234
p	524	14
p	524	284
p	524	552
p	525	376
p	528	320
p	528	338
p	528	483
p	528	551
p	529	19
p	529	97
p	529	114
p	529	265
p	530	188
p	530	414
p	530	430
p	531	483
p	533	115
p	533	554
p	534	38
p	535	24
p	535	208
p	537	69
p	538	40
p	538	82
p	538	260
p	540	535
p	541	253
p	542	7
p	542	24
p	542	348
p	543	71
p	543	195
p	543	218
p	543	243
p	543	464
p	543	532
p	544	103
p	544	184
p	544	322
p	544	431
p	544	519
p	544	528
p	546	190
p	547	238
p	548	38
p	548	80
p	548	88
p	548	173
p	548	459
p	550	83
p	550	302
p	550	341
p	551	319
p	552	22
p	557	117
p	559	15
p	559	443
p	560	382
p	563	284
p	563	340
p	563	365
p	565	222
p	565	568
p	567	324
p	568	333
p	570	310
p	571	309
p	573	232
p	574	123
p	574	133
p	574	241
p	575	190
p	575	424
p	578	53
p	581	558
p	584	82
p	584	368
p	585	351
p	586	52
p	586	385
p	586	394
p	586	479
p	588	202
p	588	250
p	588	317
p	588	323
p	590	420
p	590	437
p	591	459
p	593	423
p	593	482
p	594	45
p	594	101
p	595	21
p	597	471
p	598	151
p	598	425
p	599	185
p	600	157
p	603	213
p	604	135
p	604	235
p	605	10
p	605	99
p	607	249
p	607	314
p	609	50
p	610	143
p	612	291
p	612	491
p	612	492
p	615	41
p	615	156
p	615	413
p	616	213
p	619	43
p	619	417
p	620	100
p	620	269
p	621	139
p	622	281
p	623	467
p	627	22
p	627	250
p	627	336
p	628	87
p	628	515
p	629	144
p	629	244
p	630	523
p	631	54
p	632	116
p	632	375
p	634	344
p	635	89
p	635	345
p	636	340
p	637	9
p	637	371
p	637	551
p	638	49
p	638	83
p	638	224
p	640	278
p	640	307
p	641	175
p	641	428
p	643	118
p	643	291
p	643	361
p	645	99
p	645	237
p	645	283
p	647	237
p	647	308
p	648	77
p	648	258
p	648	472
p	649	46
p	651	244
p	653	121
p	654	216
p	654	446
p	655	250
p	655	350
p	656	191
p	656	414
p	656	424
p	659	220
p	660	10
p	661	155
p	662	262
p	663	36
p	663	555
p	664	400
p	666	530
p	666	546
p	666	564
p	669	225
p	675	11
p	675	549
p	677	570
p	679	510
p	682	66
p	683	23
p	683	135
p	684	172
p	684	416
p	684	510
p	685	461
p	686	76
p	687	268
p	687	420
p	688	78
p	689	157
p	689	197
p	689	226
p	689	411
p	691	193
p	693	10
p	694	544
p	696	183
p	696	282
p	697	36
p	697	251
p	697	410
p	697	555
p	699	395
p	699	406
p	701	431
p	701	446
p	704	66
p	704	565
p	705	9
p	707	398
p	708	174
p	709	451
p	709	462
p	711	74
p	711	105
p	711	200
p	712	123
p	714	118
p	715	529
p	716	51
p	716	227
p	716	267
p	716	427
p	716	556
p	717	187
p	723	296
p	724	12
p	724	535
p	725	5
p	727	494
p	728	343
p	728	344
p	729	192
p	729	245
p	729	295
p	729	418
p	730	1
p	730	8
p	730	119
p	730	247
p	731	470
p	732	21
p	732	542
p	734	100
p	734	458
p	735	36
p	735	88
p	735	242
p	735	417
p	735	565
p	737	199
p	737	462
p	738	11
p	738	361
p	739	259
p	740	186
p	741	240
p	741	316
p	742	331
p	742	430
p	744	290
p	744	371
p	745	108
p	745	230
p	745	316
p	745	408
p	745	536
p	747	86
p	747	304
p	748	327
p	751	26
p	751	294
p	751	574
p	752	383
p	753	143
p	753	534
p	754	162
p	754	355
p	755	160
p	756	216
p	757	488
p	758	163
p	758	269
p	758	394
p	759	125
p	759	414
p	759	510
p	760	567
p	761	51
p	761	109
p	762	310
p	762	333
p	764	57
p	764	375
p	764	570
p	765	387
p	765	529
p	766	554
p	767	242
p	767	398
p	767	568
p	768	222
p	769	153
p	770	321
p	771	97
p	771	175
p	773	474
p	774	417
p	774	512
p	775	90
p	778	523
p	778	546
p	779	102
p	780	381
p	782	489
p	783	121
p	783	231
p	783	570
p	784	535
p	785	254
p	786	496
p	787	194
p	788	407
p	788	534
p	789	263
p	791	208
p	791	371
p	791	449
p	792	3
p	792	313
p	793	22
p	794	299
p	795	89
p	795	250
p	797	41
p	798	256
p	798	430
p	800	134
p	801	372
p	802	423
p	803	44
p	803	512
p	805	13
p	806	114
p	807	258
p	807	403
p	808	496
p	809	181
p	809	326
p	809	508
p	810	115
p	810	447
p	810	501
p	810	523
p	810	570
p	811	55
p	811	316
p	812	444
p	813	134
p	813	534
p	814	370
p	815	143
p	816	20
p	816	299
p	816	386
p	817	71
p	817	455
p	817	549
p	818	103
p	819	218
p	820	51
p	821	207
p	821	553
p	822	435
p	823	43
p	823	104
p	824	210
p	826	126
p	826	253
p	826	415
p	827	232
p	828	87
p	829	102
p	829	167
p	830	67
p	830	82
p	830	253
p	831	163
p	831	233
p	831	435
p	832	502
p	833	51
p	833	131
p	833	235
p	833	249
p	835	68
p	835	304
p	835	566
p	836	148
p	836	167
p	836	338
p	836	509
p	838	65
p	838	418
p	839	31
p	839	291
p	840	490
p	840	514
p	840	554
p	841	232
p	841	261
p	841	376
p	842	488
p	844	228
p	844	571
p	845	36
p	845	51
p	846	19
p	846	164
p	846	253
p	846	430
p	846	474
p	847	430
p	848	190
p	848	374
p	850	138
p	850	321
p	850	449
p	851	313
p	852	51
p	852	408
p	852	498
p	853	135
p	854	272
p	854	429
p	855	302
p	855	402
p	855	428
p	856	393
p	857	253
p	858	86
p	859	145
p	859	472
p	860	108
p	861	222
p	862	281
p	862	451
p	862	476
p	862	516
p	862	539
p	863	292
p	863	312
p	863	340
p	863	413
p	864	311
p	865	56
p	865	87
p	865	549
p	867	53
p	867	139
p	869	102
p	869	353
p	871	98
p	871	343
p	872	216
p	873	37
p	873	70
p	874	324
p	874	325
p	874	391
p	874	548
p	875	373
p	876	200
p	877	58
p	878	86
p	879	120
p	880	67
p	881	552
p	883	480
p	883	531
p	884	277
p	885	191
p	885	468
p	886	298
p	887	324
p	887	414
p	889	167
p	891	39
p	891	84
p	891	194
p	891	570
p	892	39
p	892	524
p	893	330
p	894	64
p	894	534
p	895	12
p	895	16
p	895	156
p	895	437
p	896	270
p	896	508
p	898	479
p	900	286
p	901	123
p	902	427
p	903	378
p	903	413
p	904	253
p	905	251
p	905	464
p	906	20
p	906	408
p	907	5
p	907	137
p	908	303
p	908	327
p	908	434
p	909	106
p	909	488
p	911	312
p	911	325
p	911	375
p	911	532
p	913	316
p	914	157
p	914	263
p	915	288
p	917	409
p	918	307
p	919	261
p	919	438
p	920	409
p	922	34
p	923	314
p	923	339
p	925	385
p	926	87
p	926	101
p	926	231
p	927	561
p	928	461
p	928	572
p	929	27
p	929	95
p	929	165
p	929	411
p	929	438
p	929	551
p	930	26
p	930	473
p	933	222
p	933	386
p	934	422
p	935	451
p	935	506
p	936	467
p	937	337
p	938	54
p	938	457
p	939	99
p	939	561
p	940	17
p	940	507
p	942	281
p	944	145
p	944	297
p	945	387
p	947	127
p	947	357
p	948	425
p	949	427
p	952	134
p	952	233
p	952	289
p	953	260
p	954	349
p	956	337
p	957	14
p	958	483
p	958	484
p	959	265
p	959	428
p	961	121
p	961	539
p	963	155
p	963	381
p	964	19
p	964	328
p	965	462
p	966	149
p	966	244
p	966	372
p	967	15
p	967	472
p	968	18
p	968	560
p	969	122
p	969	238
p	969	324
p	969	345
p	970	267
p	972	17
p	972	61
p	972	184
p	972	558
p	973	465
p	973	485
p	975	179
p	975	560
p	976	250
p	977	131
p	977	227
p	977	408
p	977	411
p	977	445
p	978	531
p	981	69
p	981	325
p	982	301
p	982	358
p	983	216
p	983	345
p	983	352
p	983	434
p	985	373
p	986	161
p	986	541
p	989	440
p	989	572
p	991	361
p	991	419
p	992	106
p	995	113
p	995	573
p	996	169
p	996	422
p	996	486
p	997	282
p	997	334
p	997	490
p	998	137
p	998	436
p	1000	84
p	1000	147
p	1001	157
p	1001	216
p	1001	536
p	1002	212
p	1004	71
p	1004	90
p	1004	417
p	1005	208
p	1006	285
p	1006	329
p	1007	457
p	1008	244
p	1009	114
p	1011	362
p	1011	403
p	1014	128
p	1015	233
p	1015	467
p	1015	475
p	1016	186
p	1016	439
p	1017	323
p	1017	354
p	1017	397
p	1017	406
p	1017	569
p	1018	472
p	1018	478
p	1019	98
p	1019	346
p	1020	21
p	1021	307
p	1021	499
p	1023	1
p	1023	282
p	1024	28
p	1025	486
p	1026	23
p	1027	173
p	1027	446
p	1028	12
p	1028	379
p	1030	61
p	1030	327
p	1031	3
p	1031	204
p	1032	50
p	1032	306
p	1034	25
p	1034	81
p	1034	232
p	1034	374
p	1035	483
p	1036	131
p	1036	297
p	1036	454
p	1037	192
p	1037	284
p	1037	355
p	1037	406
p	1039	231
p	1039	287
p	1040	113
p	1040	179
p	1040	564
p	1042	234
p	1042	388
p	1043	37
p	1043	540
p	1044	58
p	1044	449
p	1046	66
p	1046	217
p	1046	571
p	1047	266
p	1050	466
p	1051	225
p	1051	230
p	1054	98
p	1055	288
p	1056	309
p	1056	433
p	1059	87
p	1060	35
p	1060	548
p	1063	201
p	1064	126
p	1065	326
p	1065	337
p	1065	344
p	1065	442
p	1066	260
p	1066	305
p	1066	443
p	1067	551
p	1068	242
p	1068	289
p	1069	17
p	1071	231
p	1072	475
p	1072	548
p	1073	498
p	1074	14
p	1074	197
p	1074	481
p	1079	98
p	1079	489
p	1080	137
p	1080	280
p	1080	463
p	1080	551
p	1081	155
p	1081	481
p	1081	521
p	1084	44
p	1084	323
p	1085	331
p	1085	488
p	1087	153
p	1087	415
p	1087	449
p	1089	71
p	1089	349
p	1089	565
p	1090	209
p	1090	227
p	1090	250
p	1090	267
p	1090	418
p	1090	471
p	1090	493
p	1091	23
p	1092	433
p	1093	500
p	1094	50
p	1095	105
p	1095	418
p	1096	294
p	1096	318
p	1096	408
p	1097	165
p	1097	206
p	1097	375
p	1099	190
p	1099	445
p	1099	508
p	1100	186
p	1100	330
p	1100	525
p	1101	90
p	1101	424
p	1102	157
p	1102	299
p	1102	415
p	1106	64
p	1106	139
p	1107	26
p	1107	400
p	1107	437
p	1109	375
p	1110	26
p	1111	312
p	1112	474
p	1113	143
p	1113	387
p	1113	550
p	1114	378
p	1114	381
p	1115	525
p	1116	411
p	1118	126
p	1118	344
p	1119	38
p	1119	487
p	1120	224
p	1121	93
p	1121	548
p	1122	435
p	1122	475
p	1122	571
p	1124	91
p	1124	184
p	1124	222
p	1124	294
p	1126	133
p	1126	324
p	1126	488
p	1126	492
p	1128	514
p	1128	524
p	1129	136
p	1129	564
p	1130	281
p	1131	286
p	1131	295
p	1132	500
p	1133	328
p	1134	572
p	1136	56
p	1136	235
p	1136	334
p	1137	21
p	1138	364
p	1138	568
p	1138	570
p	1142	183
p	1142	251
p	1143	183
p	1143	205
p	1145	182
p	1145	244
p	1145	363
p	1145	527
p	1146	423
p	1146	454
p	1147	330
p	1147	335
p	1147	421
p	1147	472
p	1148	58
p	1148	458
p	1150	209
p	1150	425
p	1151	297
